{
    "name": "sip",
    "buildsystem": "simple",
    "build-commands": [
        "python setup.py build",
        "python setup.py install --skip-build --prefix=$FLATPAK_DEST --root=/ --optimize=1"
    ],
    "sources": [
        {
            "type": "archive",
            "url": "https://files.pythonhosted.org/packages/07/4e/0de6d5872145f4cedf187aa8a9069ba91d7e293a82cbbaeabd10c45e9cf0/sip-6.5.0.tar.gz",
            "sha256": "a1cf8431a8eb9392b3ff6dc61d832d0447bfdcae5b3e4256a5fa74dbc25b0734"
        }
    ],
    "cleanup": [
        "/bin"
    ],
    "modules": [
        "../../python-toml/python-toml.json"
    ]
}
